<?xml version="1.0" encoding="UTF-8" standalone="no"?>
<!-- Created with Inkscape (http://www.inkscape.org/) -->

<svg
   xmlns:dc="http://purl.org/dc/elements/1.1/"
   xmlns:cc="http://creativecommons.org/ns#"
   xmlns:rdf="http://www.w3.org/1999/02/22-rdf-syntax-ns#"
   xmlns:svg="http://www.w3.org/2000/svg"
   xmlns="http://www.w3.org/2000/svg"
   xmlns:sodipodi="http://sodipodi.sourceforge.net/DTD/sodipodi-0.dtd"
   xmlns:inkscape="http://www.inkscape.org/namespaces/inkscape"
   width="150.43452mm"
   height="150.43452mm"
   viewBox="0 0 150.43452 150.43452"
   version="1.1"
   id="svg8"
   inkscape:version="0.92.4 (5da689c313, 2019-01-14)"
   sodipodi:docname="01n.svg"
   inkscape:export-filename="C:\xampp\htdocs\ApiWeather\images\02n.png"
   inkscape:export-xdpi="96"
   inkscape:export-ydpi="96">
  <defs
     id="defs2" />
  <sodipodi:namedview
     id="base"
     pagecolor="#ffffff"
     bordercolor="#666666"
     borderopacity="1.0"
     inkscape:pageopacity="0.0"
     inkscape:pageshadow="2"
     inkscape:zoom="0.7"
     inkscape:cx="306.00668"
     inkscape:cy="313.13007"
     inkscape:document-units="mm"
     inkscape:current-layer="layer1"
     showgrid="false"
     inkscape:window-width="1954"
     inkscape:window-height="820"
     inkscape:window-x="969"
     inkscape:window-y="453"
     inkscape:window-maximized="0"
     fit-margin-top="0"
     fit-margin-left="0"
     fit-margin-right="0"
     fit-margin-bottom="0" />
  <metadata
     id="metadata5">
    <rdf:RDF>
      <cc:Work
         rdf:about="">
        <dc:format>image/svg+xml</dc:format>
        <dc:type
           rdf:resource="http://purl.org/dc/dcmitype/StillImage" />
        <dc:title></dc:title>
      </cc:Work>
    </rdf:RDF>
  </metadata>
  <g
     inkscape:label="Layer 1"
     inkscape:groupmode="layer"
     id="layer1"
     transform="translate(-33.877037,-72.235222)">
    <circle
       style="opacity:1;fill:#002255;fill-opacity:1;stroke:none;stroke-width:1.46499991;stroke-miterlimit:4;stroke-dasharray:none;stroke-opacity:1"
       id="path4518"
       cx="109.0943"
       cy="147.45248"
       r="75.217262" />
    <path
       style="opacity:1;fill:#ffeeaa;fill-opacity:1;stroke:none;stroke-width:1.21563828;stroke-miterlimit:4;stroke-dasharray:none;stroke-opacity:1"
       d="m 107.36441,96.232177 a 44.22322,44.22322 0 0 0 -39.8335,37.287243 44.22322,44.22322 0 0 0 36.99102,50.42835 44.22322,44.22322 0 0 0 50.42877,-36.99096 44.22322,44.22322 0 0 0 0.49995,-7.3479 35.127664,35.127664 0 0 1 -38.46006,23.09094 35.127664,35.127664 0 0 1 -29.383053,-40.05673 35.127664,35.127664 0 0 1 19.756873,-26.410943 z"
       id="path4520"
       inkscape:connector-curvature="0" />
    <circle
       style="opacity:1;fill:#f9f9f9;fill-opacity:1;stroke:none;stroke-width:1.01423073;stroke-miterlimit:4;stroke-dasharray:none;stroke-opacity:1"
       id="path4539"
       cx="134.1693"
       cy="96.547852"
       r="2.4054255" />
    <circle
       r="2.4054255"
       cy="152.94171"
       cx="50.513931"
       id="circle4541"
       style="opacity:1;fill:#f9f9f9;fill-opacity:1;stroke:none;stroke-width:1.01423073;stroke-miterlimit:4;stroke-dasharray:none;stroke-opacity:1" />
    <circle
       style="opacity:1;fill:#f9f9f9;fill-opacity:1;stroke:none;stroke-width:1.01423073;stroke-miterlimit:4;stroke-dasharray:none;stroke-opacity:1"
       id="circle4543"
       cx="162.76712"
       cy="164.96884"
       r="2.4054255" />
    <circle
       r="2.4054255"
       cy="199.44661"
       cx="117.59858"
       id="circle4545"
       style="opacity:1;fill:#f9f9f9;fill-opacity:1;stroke:none;stroke-width:1.01423073;stroke-miterlimit:4;stroke-dasharray:none;stroke-opacity:1" />
    <circle
       style="opacity:1;fill:#f9f9f9;fill-opacity:1;stroke:none;stroke-width:0.90153843;stroke-miterlimit:4;stroke-dasharray:none;stroke-opacity:1"
       id="circle4547"
       cx="85.258965"
       cy="197.84299"
       r="2.1381559" />
    <circle
       r="1.4766976"
       cy="146.79451"
       cx="120.53854"
       id="circle4549"
       style="opacity:1;fill:#f9f9f9;fill-opacity:1;stroke:none;stroke-width:0.62263918;stroke-miterlimit:4;stroke-dasharray:none;stroke-opacity:1" />
    <circle
       style="opacity:1;fill:#f9f9f9;fill-opacity:1;stroke:none;stroke-width:0.62263918;stroke-miterlimit:4;stroke-dasharray:none;stroke-opacity:1"
       id="circle4551"
       cx="85.927139"
       cy="92.004265"
       r="1.4766976" />
    <circle
       r="1.4766976"
       cy="105.10047"
       cx="120.53854"
       id="circle4553"
       style="opacity:1;fill:#f9f9f9;fill-opacity:1;stroke:none;stroke-width:0.62263918;stroke-miterlimit:4;stroke-dasharray:none;stroke-opacity:1" />
    <circle
       style="opacity:1;fill:#f9f9f9;fill-opacity:1;stroke:none;stroke-width:0.56346148;stroke-miterlimit:4;stroke-dasharray:none;stroke-opacity:1"
       id="circle4555"
       cx="57.863846"
       cy="138.50917"
       r="1.3363475" />
    <circle
       r="0.93544316"
       cy="122.47301"
       cx="58.398384"
       id="circle4557"
       style="opacity:1;fill:#f9f9f9;fill-opacity:1;stroke:none;stroke-width:0.39442301;stroke-miterlimit:4;stroke-dasharray:none;stroke-opacity:1" />
    <circle
       style="opacity:1;fill:#f9f9f9;fill-opacity:1;stroke:none;stroke-width:1.01423073;stroke-miterlimit:4;stroke-dasharray:none;stroke-opacity:1"
       id="circle4559"
       cx="144.63"
       cy="122.32564"
       r="2.4054255" />
  </g>
</svg>
