<?xml version="1.0" encoding="UTF-8" standalone="no"?>
<!-- Created with Inkscape (http://www.inkscape.org/) -->

<svg
   xmlns:dc="http://purl.org/dc/elements/1.1/"
   xmlns:cc="http://creativecommons.org/ns#"
   xmlns:rdf="http://www.w3.org/1999/02/22-rdf-syntax-ns#"
   xmlns:svg="http://www.w3.org/2000/svg"
   xmlns="http://www.w3.org/2000/svg"
   xmlns:sodipodi="http://sodipodi.sourceforge.net/DTD/sodipodi-0.dtd"
   xmlns:inkscape="http://www.inkscape.org/namespaces/inkscape"
   width="150.43452mm"
   height="150.43452mm"
   viewBox="0 0 150.43452 150.43452"
   version="1.1"
   id="svg8"
   inkscape:version="0.92.4 (5da689c313, 2019-01-14)"
   sodipodi:docname="13d.svg"
   inkscape:export-filename="C:\xampp\htdocs\ApiWeather\images\13d.png"
   inkscape:export-xdpi="96"
   inkscape:export-ydpi="96">
  <defs
     id="defs2">
    <inkscape:path-effect
       effect="spiro"
       id="path-effect4565"
       is_visible="true" />
  </defs>
  <sodipodi:namedview
     id="base"
     pagecolor="#ffffff"
     bordercolor="#666666"
     borderopacity="1.0"
     inkscape:pageopacity="0.0"
     inkscape:pageshadow="2"
     inkscape:zoom="0.7"
     inkscape:cx="286.9284"
     inkscape:cy="230.9856"
     inkscape:document-units="mm"
     inkscape:current-layer="layer1"
     showgrid="false"
     inkscape:window-width="1470"
     inkscape:window-height="959"
     inkscape:window-x="1042"
     inkscape:window-y="965"
     inkscape:window-maximized="0"
     fit-margin-top="0"
     fit-margin-left="0"
     fit-margin-right="0"
     fit-margin-bottom="0"
     inkscape:snap-global="false" />
  <metadata
     id="metadata5">
    <rdf:RDF>
      <cc:Work
         rdf:about="">
        <dc:format>image/svg+xml</dc:format>
        <dc:type
           rdf:resource="http://purl.org/dc/dcmitype/StillImage" />
        <dc:title></dc:title>
      </cc:Work>
    </rdf:RDF>
  </metadata>
  <g
     inkscape:label="Layer 1"
     inkscape:groupmode="layer"
     id="layer1"
     transform="translate(-33.877037,-72.235222)">
    <circle
       style="opacity:1;fill:#5599ff;fill-opacity:1;stroke:none;stroke-width:1.46499991;stroke-miterlimit:4;stroke-dasharray:none;stroke-opacity:1"
       id="path4518"
       cx="109.0943"
       cy="147.45248"
       r="75.217262" />
    <path
       inkscape:connector-curvature="0"
       id="path4687"
       d="m 139.95294,120.77002 a 14.292621,14.292621 0 0 1 13.65173,10.06225 9.4551185,9.4551185 0 0 1 1.74032,-0.16745 9.4551185,9.4551185 0 0 1 9.45499,9.45499 9.4551185,9.4551185 0 0 1 -0.27027,2.19907 h -63.4814 a 8.5755716,8.5755716 0 0 1 -0.0153,-0.43981 8.5755716,8.5755716 0 0 1 8.57566,-8.57566 8.5755716,8.5755716 0 0 1 4.25116,1.14028 11.434097,11.434097 0 0 1 8.28224,-3.55881 11.434097,11.434097 0 0 1 3.95805,0.71549 14.292621,14.292621 0 0 1 13.85284,-10.83035 z"
       style="opacity:1;fill:#ffffff;fill-opacity:1;stroke:none;stroke-width:0.62113816;stroke-miterlimit:4;stroke-dasharray:none;stroke-opacity:1" />
    <path
       style="opacity:1;fill:#ffffff;fill-opacity:1;stroke:none;stroke-width:0.79526103;stroke-miterlimit:4;stroke-dasharray:none;stroke-opacity:1"
       d="m 86.665314,144.16903 a 18.299253,18.299253 0 0 0 -17.478699,12.88299 12.10566,12.10566 0 0 0 -2.228189,-0.21439 12.10566,12.10566 0 0 0 -12.105495,12.10551 12.10566,12.10566 0 0 0 0.346028,2.81553 h 81.277061 a 10.979551,10.979551 0 0 0 0.0196,-0.56311 10.979551,10.979551 0 0 0 -10.97966,-10.97966 10.979551,10.979551 0 0 0 -5.44287,1.45993 14.639402,14.639402 0 0 0 -10.60399,-4.55645 14.639402,14.639402 0 0 0 -5.06761,0.91607 18.299253,18.299253 0 0 0 -17.736188,-13.86642 z"
       id="path4525"
       inkscape:connector-curvature="0" />
    <path
       sodipodi:type="star"
       style="opacity:1;fill:#aaccff;fill-opacity:1;stroke:none;stroke-width:4.32464743;stroke-miterlimit:4;stroke-dasharray:none;stroke-opacity:1"
       id="path7067"
       sodipodi:sides="15"
       sodipodi:cx="75.454422"
       sodipodi:cy="183.54921"
       sodipodi:r1="5.6693721"
       sodipodi:r2="3.7984793"
       sodipodi:arg1="1.0471976"
       sodipodi:arg2="1.2566371"
       inkscape:flatsided="false"
       inkscape:rounded="0"
       inkscape:randomized="0"
       d="m 78.289108,188.45903 -1.660891,-1.29725 -0.581184,2.02574 -0.98966,-1.86064 -1.354883,1.61422 -0.147308,-2.10231 -1.89431,0.92358 0.720516,-1.98047 -2.106195,0.0733 1.463756,-1.51619 -1.953899,-0.78975 1.953899,-0.78975 -1.463756,-1.51619 2.106195,0.0733 -0.720516,-1.98048 1.894311,0.92359 0.147307,-2.10231 1.354883,1.61422 0.98966,-1.86065 0.581184,2.02575 1.660891,-1.29725 -0.293007,2.087 2.04494,-0.50955 -1.116535,1.78739 2.075399,0.36625 -1.747004,1.17873 1.747004,1.17873 -2.075399,0.36625 1.116534,1.78739 -2.044939,-0.50955 z"
       inkscape:transform-center-x="0.061945048"
       inkscape:transform-center-y="-1.8771696e-06" />
    <path
       inkscape:transform-center-y="-2.6009447e-06"
       inkscape:transform-center-x="0.085828879"
       d="m 108.07026,199.58795 -2.30128,-1.79743 -0.80527,2.80681 -1.37124,-2.57805 -1.87728,2.23662 -0.20411,-2.9129 -2.624691,1.27969 0.998324,-2.74408 -2.918275,0.10149 2.028133,-2.10079 -2.707258,-1.09425 2.707258,-1.09424 -2.028132,-2.10079 2.918274,0.10149 -0.998323,-2.74408 2.62469,1.27969 0.20411,-2.9129 1.87728,2.23662 1.37124,-2.57805 0.80527,2.80681 2.30128,-1.79743 -0.40598,2.89168 2.8334,-0.70602 -1.54704,2.47655 2.87561,0.50747 -2.42059,1.6332 2.42059,1.63321 -2.87561,0.50747 1.54704,2.47655 -2.8334,-0.70602 z"
       inkscape:randomized="0"
       inkscape:rounded="0"
       inkscape:flatsided="false"
       sodipodi:arg2="1.2566371"
       sodipodi:arg1="1.0471976"
       sodipodi:r2="5.2630482"
       sodipodi:r1="7.8552961"
       sodipodi:cy="192.78507"
       sodipodi:cx="104.14261"
       sodipodi:sides="15"
       id="path7069"
       style="opacity:1;fill:#aaccff;fill-opacity:1;stroke:none;stroke-width:5.99208975;stroke-miterlimit:4;stroke-dasharray:none;stroke-opacity:1"
       sodipodi:type="star" />
    <path
       sodipodi:type="star"
       style="opacity:1;fill:#aaccff;fill-opacity:1;stroke:none;stroke-width:5.05415344;stroke-miterlimit:4;stroke-dasharray:none;stroke-opacity:1"
       id="path7071"
       sodipodi:sides="15"
       sodipodi:cx="145.56382"
       sodipodi:cy="153.49482"
       sodipodi:r1="6.6257138"
       sodipodi:r2="4.4392281"
       sodipodi:arg1="1.0471976"
       sodipodi:arg2="1.2566371"
       inkscape:flatsided="false"
       inkscape:rounded="0"
       inkscape:randomized="0"
       d="m 148.87668,159.23286 -1.94106,-1.51608 -0.67922,2.36746 -1.1566,-2.1745 -1.58343,1.88652 -0.17216,-2.45695 -2.21385,1.07938 0.84206,-2.31455 -2.46148,0.0856 1.71067,-1.77196 -2.2835,-0.92296 2.2835,-0.92297 -1.71067,-1.77195 2.46148,0.0856 -0.84206,-2.31455 2.21385,1.07938 0.17216,-2.45694 1.58343,1.88652 1.1566,-2.17451 0.67922,2.36746 1.94106,-1.51608 -0.34243,2.43905 2.38989,-0.59551 -1.30488,2.0889 2.42549,0.42803 -2.04169,1.37757 2.04169,1.37756 -2.42549,0.42803 1.30488,2.0889 -2.38989,-0.5955 z"
       inkscape:transform-center-x="0.072394163"
       inkscape:transform-center-y="-2.1938212e-06" />
    <path
       sodipodi:type="star"
       style="opacity:1;fill:#aaccff;fill-opacity:1;stroke:none;stroke-width:3.92873526;stroke-miterlimit:4;stroke-dasharray:none;stroke-opacity:1"
       id="path7073"
       sodipodi:sides="15"
       sodipodi:cx="128.52208"
       sodipodi:cy="184.28059"
       sodipodi:r1="5.1503534"
       sodipodi:r2="3.4507365"
       sodipodi:arg1="1.0471976"
       sodipodi:arg2="1.2566371"
       inkscape:flatsided="false"
       inkscape:rounded="0"
       inkscape:randomized="0"
       d="m 131.09726,188.74093 -1.50884,-1.17849 -0.52798,1.84029 -0.89906,-1.6903 -1.23085,1.46644 -0.13382,-1.90985 -1.72089,0.83903 0.65456,-1.79916 -1.91338,0.0665 1.32975,-1.37739 -1.77502,-0.71745 1.77502,-0.71744 -1.32975,-1.37739 1.91338,0.0665 -0.65456,-1.79916 1.72089,0.83903 0.13382,-1.90985 1.23085,1.46644 0.89906,-1.69031 0.52798,1.8403 1.50884,-1.17849 -0.26619,1.89594 1.85773,-0.46291 -1.01432,1.62376 1.88541,0.33273 -1.58707,1.07081 1.58707,1.07082 -1.88541,0.33272 1.01432,1.62377 -1.85773,-0.46291 z"
       inkscape:transform-center-x="0.056274016"
       inkscape:transform-center-y="-2.6147436e-06" />
  </g>
</svg>
